{
  "type": "service_account",
  "project_id": "bestill-app",
  "private_key_id": "7010657148270bb2af4b2aecef540c32b61c704a",
  "private_key": "-----BEGIN PRIVATE KEY-----\nMIIEvQIBADANBgkqhkiG9w0BAQEFAASCBKcwggSjAgEAAoIBAQDgaKvVnJxM7/Fa\nPrY04eviomVpiPu83+fMt7k5Iwrbfwn7XXjc+sWMFPvcJ9WaW+HasuGfslmuICUO\nVGptqOnSZBxoqLptdhu/6D3cJotVTEtZp0Q4LqbQozrjLy6QxipwyD50oof1atSJ\noyH3GrybjpNOLasylM+rAapxhbj6RjFT9vsOIPI8YHoclW44W/rxACkyQoZp+TLB\nz8QcONaTF1qZ4SI93fRMFQkCtcb2ZyZL27blpkcXacpuLm4JLMa//DokYA949RTm\nxb7PlxX4Xmp0p16RdDSmQPHiEO7l/dBWAJRIRwV953Xylm5wXnnjfqgAVzuJPcJG\nndskcbOXAgMBAAECggEAZW4qLPUKmKPjXTz3MlPjQJ7SY68syaQSq69nIvI52BhF\ntL39ATS/0Z8yb8H5hDl/jlBINtxwOIoC9cUmDcbJWPUy+gM5sHwv8r/QJg+t7rH7\nZNx7s0Ey2R7OYR1UWM+ZIzz/LczA0yakRknb8kq9cToyTqXJuaUVcF/iYElm4Ie8\nqslTUcS+WlnRPTlyJW8UM95wQUUxwER4RDr9tFEaIaJU/kFrYmRzDLYMUNQhbbOc\ndOeEot4yZsYwF7WwMy/i//sggb+8lhvkWobiQOHCZA/L0V0U7laVxzjLiqN2IHNd\nhXdvSiPTmMQ79a5IlS8K0MVmJjZCfI1L/gsaVqFKMQKBgQD5+byjPfikfYaaPLNB\n2Zn7iYrbIk/8lrbi5ZW+1Se6NSAOzy/2J6wD/NkCG+57c75HiTaM4HK9t+sho/If\niOy/41XbeSlcjzsMB/6KpU2JQ5DTfC3rF74aaZXyTmTp7rDx4uX2QrmzCCT6jOw4\nFScDgggrJ2PFFusxlApaQ7n1dQKBgQDl0TJkKXuhh/RFexeJLhdrqm4PyfepvKqV\nnT+fEDdf7PTNOt1WTAUxr8I27WlwLBKmTgtjaywgveok0vdTPyOKWIsxxgUOFv2U\nCn9CVyhaPLn0pG39KxsYMvdoA68OCoZkT31fxEso1XuBe2OsFdcRKiIqitJfzANu\nq5EHSLRHWwKBgCRchGkGca2TqMm0vKp+eZySNEWN5y6pya6VkMOyg9XdNm2RC7v1\np1rpI7Pf1j/U5T/IoMu7NlWMdEJvc5/Mrgt3iRyksjSJjSBB5W/LfczSrDVnIdLJ\noFh9NVeKubkhhFGbHLJGoHZ/X8mmSBIcWZF0D7YfQ67+l3WdwCfDJEClAoGAAbNj\noRQhgxeDekQn727042oWeG1xNMNdq8/HGcE/96jEQwSNgMb9PtnjIQ7uudLJrItl\nUC4J3JArPGyHQgl0lOCE3zBs9ya6Z68QNAh7FvfeFG5nFfmMsMgnxpBIal0vk2x3\nLA9C0yGJUXL9UNe0iL78E76FQgo7eEUyxJAILYMCgYEAk5k2gKM/f5btQu1gkWYo\nTqK/G6wLRyvm1fJDlb8+1fhcZZD7zdfqDExUQgjh4+Tk6nS3sUzKMwhc5MaAREgO\nD2EWsEfjCuu0LCfkWrLlLL0DEefFcYJqSD2QNf2UsDDRHif04aGGw8hOnakAEpun\nDwVjtg4JNY5Achx6wnL/yXo=\n-----END PRIVATE KEY-----\n",
  "client_email": "firebase-adminsdk-4wb0y@bestill-app.iam.gserviceaccount.com",
  "client_id": "114035023026011934213",
  "auth_uri": "https://accounts.google.com/o/oauth2/auth",
  "token_uri": "https://oauth2.googleapis.com/token",
  "auth_provider_x509_cert_url": "https://www.googleapis.com/oauth2/v1/certs",
  "client_x509_cert_url": "https://www.googleapis.com/robot/v1/metadata/x509/firebase-adminsdk-4wb0y%40bestill-app.iam.gserviceaccount.com"
}
